---
http_interactions:
- request:
    method: get
    uri: http://api.lvh.me:3000/channels?limit=5
    body:
      encoding: US-ASCII
      string: ''
    headers:
      User-Agent:
      - Gecko/0.0.7 OAuth2/1.0.0 Faraday/0.9.1 Ruby/2.2.3
      Authorization:
      - Bearer 6c565ae9b0f11967842de246ac48af77a461a07d7f78ba6619d42c2a27d234c9
      Accept-Encoding:
      - gzip;q=1.0,deflate;q=0.6,identity;q=0.3
      Accept:
      - "*/*"
  response:
    status:
      code: 200
      message: 'OK '
    headers:
      X-Frame-Options:
      - SAMEORIGIN
      X-Xss-Protection:
      - 1; mode=block
      X-Content-Type-Options:
      - nosniff
      X-Rate-Limit-Limit:
      - '300'
      X-Rate-Limit-Remaining:
      - '299'
      X-Rate-Limit-Reset:
      - '1442472900'
      X-Pagination:
      - '{"total_records":6,"total_pages":2,"first_page":true,"last_page":false,"out_of_bounds":false,"offset":0}'
      Link:
      - <http://api.lvh.me:3000/ajax/channels?limit=5&page=2>; rel="next", <http://api.lvh.me:3000/ajax/channels?limit=5&page=2>;
        rel="last"
      Content-Type:
      - application/json; charset=utf-8
      Cache-Control:
      - no-store, must-revalidate, private, max-age=0
      X-Request-Id:
      - 046947c0-34de-4319-865b-51a668b3233b
      X-Runtime:
      - '0.860234'
      X-Miniprofiler-Ids:
      - '["8gqnugnfutn41nkoysk2","ck649g19ztke6t3h0uif","2a36x60nkep6vo6fnt8c","y5x7rci5vlr31wyrwfdz","5fmkus3lafbm57gfa5vx","58whj29mvt5li6wu7e5r","4nffzg3mzgxjpz1n60v2","l3aa9o4d0ucux1f7asq1","keo9vi6r0wir7vwbpywb","sw1cvhy3upf4o8q2892t"]'
      Server:
      - WEBrick/1.3.1 (Ruby/2.2.3/2015-08-18)
      Date:
      - Thu, 17 Sep 2015 06:52:27 GMT
      Content-Length:
      - '2614'
      Connection:
      - Keep-Alive
      Set-Cookie:
      - __profilin=p%3Dt; path=/
      - __profilin=p%3Dt; path=/
      - __profilin=p%3Dt; path=/
    body:
      encoding: UTF-8
      string: '{"channels":[{"id":6,"created_at":"2015-09-17T06:35:10.293Z","updated_at":"2015-09-17T06:35:10.293Z","active":false,"application_id":5,"authenticated":true,"last_fetched_at":null,"manage_variant_details":null,"name":"Stripe5","price_list_id":"retail","sale_price_list_id":null,"publishable":false,"redirect_url":null,"site_url":"4","stock_location_id":null,"type":"stripe","options":{"publishable_key":"pk_test_oZUPb3r2e3dSCzspt7NDLyF0","stripe_user_id":"acct_16lbo0HXy2d0tYVu"},"publishable_key":"pk_test_oZUPb3r2e3dSCzspt7NDLyF0"},{"id":5,"created_at":"2015-09-17T06:35:07.580Z","updated_at":"2015-09-17T06:35:07.580Z","active":false,"application_id":5,"authenticated":true,"last_fetched_at":null,"manage_variant_details":null,"name":"Stripe4","price_list_id":"retail","sale_price_list_id":null,"publishable":false,"redirect_url":null,"site_url":"3","stock_location_id":null,"type":"stripe","options":{"publishable_key":"pk_test_oZUPb3r2e3dSCzspt7NDLyF0","stripe_user_id":"acct_16lbo0HXy2d0tYVu"},"publishable_key":"pk_test_oZUPb3r2e3dSCzspt7NDLyF0"},{"id":4,"created_at":"2015-09-17T06:35:05.017Z","updated_at":"2015-09-17T06:35:05.017Z","active":false,"application_id":5,"authenticated":true,"last_fetched_at":null,"manage_variant_details":null,"name":"Stripe3","price_list_id":"retail","sale_price_list_id":null,"publishable":false,"redirect_url":null,"site_url":"2","stock_location_id":null,"type":"stripe","options":{"publishable_key":"pk_test_oZUPb3r2e3dSCzspt7NDLyF0","stripe_user_id":"acct_16lbo0HXy2d0tYVu"},"publishable_key":"pk_test_oZUPb3r2e3dSCzspt7NDLyF0"},{"id":3,"created_at":"2015-09-17T06:34:43.936Z","updated_at":"2015-09-17T06:34:43.936Z","active":false,"application_id":5,"authenticated":true,"last_fetched_at":null,"manage_variant_details":null,"name":"Stripe2","price_list_id":"retail","sale_price_list_id":null,"publishable":false,"redirect_url":null,"site_url":"1","stock_location_id":null,"type":"stripe","options":{"publishable_key":"pk_test_oZUPb3r2e3dSCzspt7NDLyF0","stripe_user_id":"acct_16lbo0HXy2d0tYVu"},"publishable_key":"pk_test_oZUPb3r2e3dSCzspt7NDLyF0"},{"id":2,"created_at":"2015-09-16T16:15:48.776Z","updated_at":"2015-09-16T16:15:48.776Z","active":false,"application_id":5,"authenticated":true,"last_fetched_at":null,"manage_variant_details":null,"name":"Stripe","price_list_id":"retail","sale_price_list_id":null,"publishable":false,"redirect_url":null,"site_url":null,"stock_location_id":null,"type":"stripe","options":{"publishable_key":"pk_test_oZUPb3r2e3dSCzspt7NDLyF0","stripe_user_id":"acct_16lbo0HXy2d0tYVu"},"publishable_key":"pk_test_oZUPb3r2e3dSCzspt7NDLyF0"}]}'
    http_version: 
  recorded_at: Thu, 17 Sep 2015 06:52:27 GMT
recorded_with: VCR 2.9.3
