---
http_interactions:
- request:
    method: get
    uri: http://api.lvh.me:3000/notes?limit=5
    body:
      encoding: US-ASCII
      string: ''
    headers:
      User-Agent:
      - Gecko/0.0.3 OAuth2/1.0.0 Faraday/0.9.0 Ruby/2.0.0
      Authorization:
      - Bearer d7ebf96f5550d6ffc05474c4da3ce9d8e408ca2540ee0bbcb9e2140d47e64963
      Accept-Encoding:
      - gzip;q=1.0,deflate;q=0.6,identity;q=0.3
      Accept:
      - "*/*"
  response:
    status:
      code: 200
      message: 'OK '
    headers:
      X-Frame-Options:
      - SAMEORIGIN
      X-Xss-Protection:
      - 1; mode=block
      X-Content-Type-Options:
      - nosniff
      X-Rate-Limit-Limit:
      - '300'
      X-Rate-Limit-Remaining:
      - '299'
      X-Rate-Limit-Reset:
      - '1412078700'
      X-Pagination:
      - '{"total_records":11,"total_pages":3,"first_page":true,"last_page":false,"out_of_bounds":false,"offset":0}'
      Link:
      - <http://api.lvh.me:3000/ajax/notes?limit=5&page=2>; rel="next", <http://api.lvh.me:3000/ajax/notes?limit=5&page=3>;
        rel="last"
      Content-Type:
      - application/json; charset=utf-8
      Etag:
      - '"8764f347b32f518a0e47d3c94dba94c8"'
      Cache-Control:
      - max-age=0, private, must-revalidate
      X-Request-Id:
      - d4776b8b-1c61-4cf2-9830-ff0334799ca4
      X-Runtime:
      - '1.611920'
      Server:
      - WEBrick/1.3.1 (Ruby/2.0.0/2014-05-08)
      Date:
      - Tue, 30 Sep 2014 12:02:19 GMT
      Content-Length:
      - '1751'
      Connection:
      - Keep-Alive
    body:
      encoding: UTF-8
      string: '{"notes":[{"id":1,"created_at":"2014-02-12T07:25:10.082Z","updated_at":"2014-02-12T07:25:10.082Z","company_id":33,"user_id":37,"body":"Manager speaks Sindarin"}]}'
    http_version: 
  recorded_at: Tue, 30 Sep 2014 12:02:19 GMT
recorded_with: VCR 2.9.2
