---
http_interactions:
- request:
    method: get
    uri: http://api.lvh.me:3000/orders?limit=5
    body:
      encoding: US-ASCII
      string: ''
    headers:
      User-Agent:
      - Faraday v0.9.0
      Authorization:
      - Bearer 73f8655eda623d3a7bc99a8d3ff35d47220047041b28e8b83cb49f59a9119f14
      Accept-Encoding:
      - gzip;q=1.0,deflate;q=0.6,identity;q=0.3
      Accept:
      - '*/*'
  response:
    status:
      code: 200
      message: OK
    headers:
      Date:
      - Mon, 03 Mar 2014 01:41:31 GMT
      Status:
      - 200 OK
      Connection:
      - close
      X-Frame-Options:
      - SAMEORIGIN
      X-Xss-Protection:
      - 1; mode=block
      X-Content-Type-Options:
      - nosniff
      X-Ua-Compatible:
      - chrome=1
      X-Pagination:
      - '{"total_records":658,"total_pages":132,"first_page":true,"last_page":false,"out_of_bounds":false,"offset":0}'
      Link:
      - <http://api.lvh.me:3000/ajax/orders.json?limit=5&page=2>; rel="next", <http://api.lvh.me:3000/ajax/orders.json?limit=5&page=132>;
        rel="last"
      Content-Type:
      - application/json; charset=utf-8
      Etag:
      - '"cb93a404093feaa63b2ec8dfa04a6c1f"'
      Cache-Control:
      - max-age=0, private, must-revalidate
      X-Request-Id:
      - 6ced971b-751c-455e-bd01-846abd1943f3
      X-Runtime:
      - '0.301508'
      Transfer-Encoding:
      - chunked
    body:
      encoding: UTF-8
      string: '{"orders":[{"id":5706,"fulfillment_ids":[5086,17053],"invoice_ids":[4347],"company_id":106,"shipping_address_id":1171,"billing_address_id":104,"user_id":829,"assignee_id":null,"stock_location_id":159,"currency_id":4,"order_number":"SO0211","phone_number":"98
        6453651","email":"hello@bikesmoore.com","notes":null,"reference_number":"","status":"fulfilled","payment_status":"unpaid","invoice_status":"partial","invoice_numbers":{"4347":"INV0042"},"packed_status":"packed","fulfillment_status":"shipped","tax_type":"exclusive","default_price_type_id":"wholesale","issued_at":"2013-03-28","created_at":"2013-03-28T08:02:43.377Z","updated_at":"2013-11-14T04:02:23.404Z","ship_at":"2013-04-11","tax_override":null,"tax_label":"GST","tracking_number":null,"source_id":null,"source_url":null,"total":"166.75","source":null,"url":null,"cached_total":"166.75","order_line_item_ids":[12434,12435,12433]},{"id":120661,"fulfillment_ids":[],"invoice_ids":[],"company_id":206086,"shipping_address_id":289097,"billing_address_id":289097,"user_id":1748,"assignee_id":1748,"stock_location_id":3723,"currency_id":4,"order_number":"WC-264","phone_number":null,"email":"email@mail.com","notes":null,"reference_number":null,"status":"deleted","payment_status":"unpaid","invoice_status":"uninvoiced","invoice_numbers":{},"packed_status":"unpacked","fulfillment_status":"unshipped","tax_type":"exclusive","default_price_type_id":"wholesale","issued_at":"2014-01-24","created_at":"2014-01-26T04:17:25.203Z","updated_at":"2014-01-26T04:23:46.599Z","ship_at":"2014-01-24","tax_override":null,"tax_label":"GST","tracking_number":null,"source_id":9,"source_url":null,"total":"220.0","source":"mobile","url":null,"cached_total":"220.0","order_line_item_ids":[445919]},{"id":120668,"fulfillment_ids":[],"invoice_ids":[],"company_id":106,"shipping_address_id":1171,"billing_address_id":104,"user_id":1748,"assignee_id":1748,"stock_location_id":153,"currency_id":4,"order_number":"SOV-5442","phone_number":null,"email":"Test@qwe.qwe","notes":null,"reference_number":"Ref
        1","status":"draft","payment_status":"unpaid","invoice_status":"uninvoiced","invoice_numbers":{},"packed_status":"unpacked","fulfillment_status":"unshipped","tax_type":"exclusive","default_price_type_id":"wholesale","issued_at":"2014-01-26","created_at":"2014-01-26T05:25:11.085Z","updated_at":"2014-01-29T02:03:16.151Z","ship_at":"2014-02-16","tags":["Suspended,Replacement"],"tax_override":null,"tax_label":"GST","tracking_number":null,"source_id":9,"source_url":null,"total":"2.2","source":"mobile","url":null,"cached_total":"2.2","order_line_item_ids":[445950]},{"id":79066,"fulfillment_ids":[],"invoice_ids":[],"company_id":128717,"shipping_address_id":166479,"billing_address_id":166479,"user_id":3809,"assignee_id":3809,"stock_location_id":160,"currency_id":4,"order_number":"SOV-5354","phone_number":null,"email":"asudtelgte@comcast.net","notes":null,"reference_number":null,"status":"finalized","payment_status":"unpaid","invoice_status":"uninvoiced","invoice_numbers":{},"packed_status":"unpacked","fulfillment_status":"unshipped","tax_type":"inclusive","default_price_type_id":"retail","issued_at":"2013-12-02","created_at":"2013-12-02T02:58:45.012Z","updated_at":"2014-01-20T04:18:35.902Z","ship_at":"2013-12-16","tax_override":null,"tax_label":"GST","tracking_number":null,"source_id":null,"source_url":null,"total":0,"source":null,"url":null,"cached_total":0,"order_line_item_ids":[]},{"id":79234,"fulfillment_ids":[56530],"invoice_ids":[],"company_id":215564,"shipping_address_id":298463,"billing_address_id":298464,"user_id":4130,"assignee_id":4130,"stock_location_id":160,"currency_id":4,"order_number":"SOV-5355","phone_number":"0272
        639 339","email":"adele.garry@xtra.co.nz","notes":null,"reference_number":null,"status":"finalized","payment_status":"unpaid","invoice_status":"uninvoiced","invoice_numbers":{},"packed_status":"packed","fulfillment_status":"unshipped","tax_type":"inclusive","default_price_type_id":"retail","issued_at":"2013-12-02","created_at":"2013-12-02T04:48:22.544Z","updated_at":"2014-01-20T04:18:35.915Z","ship_at":"2013-12-16","tax_override":null,"tax_label":"GST","tracking_number":null,"source_id":null,"source_url":null,"total":"3640.0","source":null,"url":null,"cached_total":"3640.0","order_line_item_ids":[291826]}],"meta":{"total":658}}'
    http_version:
  recorded_at: Mon, 03 Mar 2014 01:41:31 GMT
recorded_with: VCR 2.8.0
